{
    "atlas_i2c_sensors": [
        {
            "name": "Scientific Atlas pH Sensor",
            "sensortype": "ph",
            "sensoraddr": 99,
            "isactive": false
        },
        {
            "name": "Scientific Atlas EC Sensor",
            "sensortype": "ec",
            "sensoraddr": 100,
            "ppm_multiplier": 0.50,
            "isactive": false
        },
        {
            "name": "Scientific Atlas Temp Sensor",
            "sensortype": "temp",
            "sensoraddr": 102,
            "isactive": false
        }
    ],
    "atlas_i2c_pmp": [
        {
            "name": "Scientific Atlas PMP Dosing Pump",
            "sensortype": "pmp",
            "sensoraddr": 103,
            "isactive": true
        }
    ],
    "bluetooth_devices": [
        {
            "addr": "90:FD:9F:7B:85:35",
            "addrtype": "public",
            "devicetype": "Thunder Sense",
            "tentid": 2,
            "isactive": true
        },
        {
            "addr": "00:0B:57:1A:B7:DE",
            "addrtype": "public",
            "devicetype": "Thunder Sense",
            "tentid": 2,
            "isactive": true
        }
    ],
    "general": {
        "customerid": 1,
        "logginglevel": 10,
        "platform": "WIAB",
        "siteid": 1,
        "version": 1,
        "timezone": "US/Eastern"
    },
    "scheduler": [
        {
            "class": "ControlLights",
            "frequency": 300,
            "method": "control_lights",
            "threaded": true,
            "type": "frequency",
            "isactive": false
        },
        {
            "class": "BluetoothController",
            "frequency": 300,
            "method": "scan_for_devices",
            "threaded": false,
            "type": "frequency",
            "isactive": false
        },
        {
            "class": "Thunderboard",
            "frequency": 300,
            "method": "update_firebase_thunderdata",
            "threaded": false,
            "type": "frequency",
            "isactive": true
        },
        {
            "class": "Atlas_I2C",
            "frequency": 300,
            "method": "update_firebase_atlasi2c",
            "threaded": true,
            "type": "frequency",
            "isactive": false
        }
    ],
    "wemo_controllers": [
        {
            "houroff": "17:00",
            "houron": "00:00",
            "switchname": "Tent Light 1",
            "isactive": true
        },
        {
            "houroff": "17:00",
            "houron": "00:00",
            "switchname": "Tent Light 2",
            "isactive": true
        }
    ]
}